EESchema Schematic File Version 4
LIBS:horse_feeder-cache
EELAYER 30 0
EELAYER END
$Descr A4 11693 8268
encoding utf-8
Sheet 2 6
Title ""
Date ""
Rev ""
Comp ""
Comment1 ""
Comment2 ""
Comment3 ""
Comment4 ""
$EndDescr
Wire Wire Line
	1950 2050 1950 1950
$Comp
L power:+3.3V #PWR019
U 1 1 5D5948BB
P 1950 1750
F 0 "#PWR019" H 1950 1600 50  0001 C CNN
F 1 "+3.3V" H 1965 1923 50  0000 C CNN
F 2 "" H 1950 1750 50  0001 C CNN
F 3 "" H 1950 1750 50  0001 C CNN
	1    1950 1750
	1    0    0    -1  
$EndComp
$Comp
L Device:R R11
U 1 1 5D5948C1
P 1950 3000
F 0 "R11" H 2020 3046 50  0000 L CNN
F 1 "10k" H 2020 2955 50  0000 L CNN
F 2 "Resistor_SMD:R_0603_1608Metric_Pad1.05x0.95mm_HandSolder" V 1880 3000 50  0001 C CNN
F 3 "~" H 1950 3000 50  0001 C CNN
F 4 "RNCP0603FTD10K0CT-ND" H 1950 3000 50  0001 C CNN "Digikey PN"
	1    1950 3000
	1    0    0    -1  
$EndComp
Wire Wire Line
	1950 3150 1950 3250
$Comp
L power:GND #PWR020
U 1 1 5D5948C8
P 1950 3250
F 0 "#PWR020" H 1950 3000 50  0001 C CNN
F 1 "GND" H 1955 3077 50  0000 C CNN
F 2 "" H 1950 3250 50  0001 C CNN
F 3 "" H 1950 3250 50  0001 C CNN
	1    1950 3250
	1    0    0    -1  
$EndComp
Wire Wire Line
	1950 2450 1950 2650
Wire Wire Line
	1950 2650 1750 2650
Connection ~ 1950 2650
Wire Wire Line
	1950 2650 1950 2850
Wire Wire Line
	3150 2050 3150 1950
$Comp
L power:+3.3V #PWR023
U 1 1 5D594AD4
P 3150 1750
F 0 "#PWR023" H 3150 1600 50  0001 C CNN
F 1 "+3.3V" H 3165 1923 50  0000 C CNN
F 2 "" H 3150 1750 50  0001 C CNN
F 3 "" H 3150 1750 50  0001 C CNN
	1    3150 1750
	1    0    0    -1  
$EndComp
$Comp
L Device:R R15
U 1 1 5D594ADE
P 3150 3000
F 0 "R15" H 3220 3046 50  0000 L CNN
F 1 "10k" H 3220 2955 50  0000 L CNN
F 2 "Resistor_SMD:R_0603_1608Metric_Pad1.05x0.95mm_HandSolder" V 3080 3000 50  0001 C CNN
F 3 "~" H 3150 3000 50  0001 C CNN
F 4 "RNCP0603FTD10K0CT-ND" H 3150 3000 50  0001 C CNN "Digikey PN"
	1    3150 3000
	1    0    0    -1  
$EndComp
Wire Wire Line
	3150 3150 3150 3250
$Comp
L power:GND #PWR024
U 1 1 5D594AE9
P 3150 3250
F 0 "#PWR024" H 3150 3000 50  0001 C CNN
F 1 "GND" H 3155 3077 50  0000 C CNN
F 2 "" H 3150 3250 50  0001 C CNN
F 3 "" H 3150 3250 50  0001 C CNN
	1    3150 3250
	1    0    0    -1  
$EndComp
Wire Wire Line
	3150 2450 3150 2650
Wire Wire Line
	3150 2650 2950 2650
Connection ~ 3150 2650
Wire Wire Line
	3150 2650 3150 2850
Wire Wire Line
	4200 2050 4200 1950
$Comp
L power:+3.3V #PWR027
U 1 1 5D598590
P 4200 1750
F 0 "#PWR027" H 4200 1600 50  0001 C CNN
F 1 "+3.3V" H 4215 1923 50  0000 C CNN
F 2 "" H 4200 1750 50  0001 C CNN
F 3 "" H 4200 1750 50  0001 C CNN
	1    4200 1750
	1    0    0    -1  
$EndComp
$Comp
L Device:R R19
U 1 1 5D59859A
P 4200 3000
F 0 "R19" H 4270 3046 50  0000 L CNN
F 1 "10k" H 4270 2955 50  0000 L CNN
F 2 "Resistor_SMD:R_0603_1608Metric_Pad1.05x0.95mm_HandSolder" V 4130 3000 50  0001 C CNN
F 3 "~" H 4200 3000 50  0001 C CNN
F 4 "RNCP0603FTD10K0CT-ND" H 4200 3000 50  0001 C CNN "Digikey PN"
	1    4200 3000
	1    0    0    -1  
$EndComp
Wire Wire Line
	4200 3150 4200 3250
$Comp
L power:GND #PWR028
U 1 1 5D5985A5
P 4200 3250
F 0 "#PWR028" H 4200 3000 50  0001 C CNN
F 1 "GND" H 4205 3077 50  0000 C CNN
F 2 "" H 4200 3250 50  0001 C CNN
F 3 "" H 4200 3250 50  0001 C CNN
	1    4200 3250
	1    0    0    -1  
$EndComp
Wire Wire Line
	4200 2450 4200 2650
Wire Wire Line
	4200 2650 4000 2650
Connection ~ 4200 2650
Wire Wire Line
	4200 2650 4200 2850
Wire Wire Line
	1950 4500 1950 4400
$Comp
L power:+3.3V #PWR021
U 1 1 5D59B6FA
P 1950 4200
F 0 "#PWR021" H 1950 4050 50  0001 C CNN
F 1 "+3.3V" H 1965 4373 50  0000 C CNN
F 2 "" H 1950 4200 50  0001 C CNN
F 3 "" H 1950 4200 50  0001 C CNN
	1    1950 4200
	1    0    0    -1  
$EndComp
$Comp
L Device:R R12
U 1 1 5D59B704
P 1950 5450
F 0 "R12" H 2020 5496 50  0000 L CNN
F 1 "10k" H 2020 5405 50  0000 L CNN
F 2 "Resistor_SMD:R_0603_1608Metric_Pad1.05x0.95mm_HandSolder" V 1880 5450 50  0001 C CNN
F 3 "~" H 1950 5450 50  0001 C CNN
F 4 "RNCP0603FTD10K0CT-ND" H 1950 5450 50  0001 C CNN "Digikey PN"
	1    1950 5450
	1    0    0    -1  
$EndComp
Wire Wire Line
	1950 5600 1950 5700
$Comp
L power:GND #PWR022
U 1 1 5D59B70F
P 1950 5700
F 0 "#PWR022" H 1950 5450 50  0001 C CNN
F 1 "GND" H 1955 5527 50  0000 C CNN
F 2 "" H 1950 5700 50  0001 C CNN
F 3 "" H 1950 5700 50  0001 C CNN
	1    1950 5700
	1    0    0    -1  
$EndComp
Wire Wire Line
	1950 4900 1950 5100
Wire Wire Line
	1950 5100 1750 5100
Connection ~ 1950 5100
Wire Wire Line
	1950 5100 1950 5300
Wire Wire Line
	3150 4500 3150 4400
$Comp
L power:+3.3V #PWR025
U 1 1 5D59B741
P 3150 4200
F 0 "#PWR025" H 3150 4050 50  0001 C CNN
F 1 "+3.3V" H 3165 4373 50  0000 C CNN
F 2 "" H 3150 4200 50  0001 C CNN
F 3 "" H 3150 4200 50  0001 C CNN
	1    3150 4200
	1    0    0    -1  
$EndComp
$Comp
L Device:R R16
U 1 1 5D59B74B
P 3150 5450
F 0 "R16" H 3220 5496 50  0000 L CNN
F 1 "10k" H 3220 5405 50  0000 L CNN
F 2 "Resistor_SMD:R_0603_1608Metric_Pad1.05x0.95mm_HandSolder" V 3080 5450 50  0001 C CNN
F 3 "~" H 3150 5450 50  0001 C CNN
F 4 "RNCP0603FTD10K0CT-ND" H 3150 5450 50  0001 C CNN "Digikey PN"
	1    3150 5450
	1    0    0    -1  
$EndComp
Wire Wire Line
	3150 5600 3150 5700
$Comp
L power:GND #PWR026
U 1 1 5D59B756
P 3150 5700
F 0 "#PWR026" H 3150 5450 50  0001 C CNN
F 1 "GND" H 3155 5527 50  0000 C CNN
F 2 "" H 3150 5700 50  0001 C CNN
F 3 "" H 3150 5700 50  0001 C CNN
	1    3150 5700
	1    0    0    -1  
$EndComp
Wire Wire Line
	3150 4900 3150 5100
Wire Wire Line
	3150 5100 2950 5100
Connection ~ 3150 5100
Wire Wire Line
	3150 5100 3150 5300
Wire Wire Line
	4200 4500 4200 4400
$Comp
L power:+3.3V #PWR029
U 1 1 5D59B788
P 4200 4200
F 0 "#PWR029" H 4200 4050 50  0001 C CNN
F 1 "+3.3V" H 4215 4373 50  0000 C CNN
F 2 "" H 4200 4200 50  0001 C CNN
F 3 "" H 4200 4200 50  0001 C CNN
	1    4200 4200
	1    0    0    -1  
$EndComp
$Comp
L Device:R R20
U 1 1 5D59B792
P 4200 5450
F 0 "R20" H 4270 5496 50  0000 L CNN
F 1 "10k" H 4270 5405 50  0000 L CNN
F 2 "Resistor_SMD:R_0603_1608Metric_Pad1.05x0.95mm_HandSolder" V 4130 5450 50  0001 C CNN
F 3 "~" H 4200 5450 50  0001 C CNN
F 4 "RNCP0603FTD10K0CT-ND" H 4200 5450 50  0001 C CNN "Digikey PN"
	1    4200 5450
	1    0    0    -1  
$EndComp
Wire Wire Line
	4200 5600 4200 5700
$Comp
L power:GND #PWR030
U 1 1 5D59B79D
P 4200 5700
F 0 "#PWR030" H 4200 5450 50  0001 C CNN
F 1 "GND" H 4205 5527 50  0000 C CNN
F 2 "" H 4200 5700 50  0001 C CNN
F 3 "" H 4200 5700 50  0001 C CNN
	1    4200 5700
	1    0    0    -1  
$EndComp
Wire Wire Line
	4200 4900 4200 5100
Wire Wire Line
	4200 5100 4000 5100
Connection ~ 4200 5100
Wire Wire Line
	4200 5100 4200 5300
Text HLabel 1750 2650 0    50   Output ~ 0
btn_up
Text HLabel 2950 2650 0    50   Output ~ 0
btn_down
Text HLabel 4000 2650 0    50   Output ~ 0
btn_left
Text HLabel 1750 5100 0    50   Output ~ 0
btn_right
Text HLabel 2950 5100 0    50   Output ~ 0
btn_enter
Text HLabel 4000 5100 0    50   Output ~ 0
btn_back
$Comp
L horse_feeder:SW_Push_LED_alternate SW2
U 1 1 5D5948B4
P 2050 2250
F 0 "SW2" V 2096 2148 50  0000 R CNN
F 1 "SW_Push" V 2005 2148 50  0000 R CNN
F 2 "Connector_PinHeader_2.54mm:PinHeader_1x04_P2.54mm_Vertical" H 2050 2550 50  0001 C CNN
F 3 "~" H 2050 2550 50  0001 C CNN
F 4 "EG4642-ND" H 2050 2250 50  0001 C CNN "Digikey PN"
	1    2050 2250
	0    -1   -1   0   
$EndComp
$Comp
L horse_feeder:SW_Push_LED_alternate SW4
U 1 1 5D737D99
P 3250 2250
F 0 "SW4" V 3296 2148 50  0000 R CNN
F 1 "SW_Push" V 3205 2148 50  0000 R CNN
F 2 "Connector_PinHeader_2.54mm:PinHeader_1x04_P2.54mm_Vertical" H 3250 2550 50  0001 C CNN
F 3 "~" H 3250 2550 50  0001 C CNN
F 4 "EG4642-ND" H 3250 2250 50  0001 C CNN "Digikey PN"
	1    3250 2250
	0    -1   -1   0   
$EndComp
$Comp
L horse_feeder:SW_Push_LED_alternate SW6
U 1 1 5D738B1F
P 4300 2250
F 0 "SW6" V 4346 2148 50  0000 R CNN
F 1 "SW_Push" V 4255 2148 50  0000 R CNN
F 2 "Connector_PinHeader_2.54mm:PinHeader_1x04_P2.54mm_Vertical" H 4300 2550 50  0001 C CNN
F 3 "~" H 4300 2550 50  0001 C CNN
F 4 "EG4642-ND" H 4300 2250 50  0001 C CNN "Digikey PN"
	1    4300 2250
	0    -1   -1   0   
$EndComp
$Comp
L horse_feeder:SW_Push_LED_alternate SW3
U 1 1 5D739583
P 2050 4700
F 0 "SW3" V 2096 4598 50  0000 R CNN
F 1 "SW_Push" V 2005 4598 50  0000 R CNN
F 2 "Connector_PinHeader_2.54mm:PinHeader_1x04_P2.54mm_Vertical" H 2050 5000 50  0001 C CNN
F 3 "~" H 2050 5000 50  0001 C CNN
F 4 "EG4642-ND" H 2050 4700 50  0001 C CNN "Digikey PN"
	1    2050 4700
	0    -1   -1   0   
$EndComp
$Comp
L horse_feeder:SW_Push_LED_alternate SW5
U 1 1 5D739FBF
P 3250 4700
F 0 "SW5" V 3296 4598 50  0000 R CNN
F 1 "SW_Push" V 3205 4598 50  0000 R CNN
F 2 "Connector_PinHeader_2.54mm:PinHeader_1x04_P2.54mm_Vertical" H 3250 5000 50  0001 C CNN
F 3 "~" H 3250 5000 50  0001 C CNN
F 4 "EG4642-ND" H 3250 4700 50  0001 C CNN "Digikey PN"
	1    3250 4700
	0    -1   -1   0   
$EndComp
$Comp
L horse_feeder:SW_Push_LED_alternate SW7
U 1 1 5D73A8DD
P 4300 4700
F 0 "SW7" V 4346 4598 50  0000 R CNN
F 1 "SW_Push" V 4255 4598 50  0000 R CNN
F 2 "Connector_PinHeader_2.54mm:PinHeader_1x04_P2.54mm_Vertical" H 4300 5000 50  0001 C CNN
F 3 "~" H 4300 5000 50  0001 C CNN
F 4 "EG4642-ND" H 4300 4700 50  0001 C CNN "Digikey PN"
	1    4300 4700
	0    -1   -1   0   
$EndComp
Wire Wire Line
	2050 2050 2050 1950
Wire Wire Line
	2050 1950 1950 1950
Connection ~ 1950 1950
Wire Wire Line
	1950 1950 1950 1750
Wire Wire Line
	3250 2050 3250 1950
Wire Wire Line
	3250 1950 3150 1950
Wire Wire Line
	4300 2050 4300 1950
Wire Wire Line
	4300 1950 4200 1950
Wire Wire Line
	2050 4500 2050 4400
Wire Wire Line
	2050 4400 1950 4400
Wire Wire Line
	3250 4500 3250 4400
Wire Wire Line
	3250 4400 3150 4400
Wire Wire Line
	4300 4500 4300 4400
Wire Wire Line
	4300 4400 4200 4400
Connection ~ 4200 4400
Wire Wire Line
	4200 4400 4200 4200
Connection ~ 3150 4400
Wire Wire Line
	3150 4400 3150 4200
Connection ~ 1950 4400
Wire Wire Line
	1950 4400 1950 4200
Connection ~ 3150 1950
Wire Wire Line
	3150 1950 3150 1750
Connection ~ 4200 1950
Wire Wire Line
	4200 1950 4200 1750
$Comp
L Device:Q_NMOS_GSD Q?
U 1 1 5D742513
P 6350 3350
AR Path="/5D742513" Ref="Q?"  Part="1" 
AR Path="/5D42F764/5D742513" Ref="Q?"  Part="1" 
AR Path="/5DB02959/5D742513" Ref="Q?"  Part="1" 
AR Path="/5D590F0D/5D742513" Ref="Q1"  Part="1" 
F 0 "Q1" H 6556 3396 50  0000 L CNN
F 1 "Q_NMOS_GSD" H 6556 3305 50  0000 L CNN
F 2 "Package_TO_SOT_SMD:SOT-23" H 6550 3450 50  0001 C CNN
F 3 "~" H 6350 3350 50  0001 C CNN
F 4 "2N7002-FDICT-ND" H 6350 3350 50  0001 C CNN "Digikey PN"
	1    6350 3350
	1    0    0    -1  
$EndComp
Wire Wire Line
	6450 3550 6450 3800
$Comp
L power:GND #PWR031
U 1 1 5D74413F
P 6450 3800
F 0 "#PWR031" H 6450 3550 50  0001 C CNN
F 1 "GND" H 6455 3627 50  0000 C CNN
F 2 "" H 6450 3800 50  0001 C CNN
F 3 "" H 6450 3800 50  0001 C CNN
	1    6450 3800
	1    0    0    -1  
$EndComp
Wire Wire Line
	6450 3150 6450 2900
Text Label 6450 2900 0    50   ~ 0
led_drain
Wire Wire Line
	6150 3350 6000 3350
Text HLabel 6000 3350 0    50   Input ~ 0
btn_led_control
Wire Wire Line
	2050 2450 2050 2550
Wire Wire Line
	2050 2550 2300 2550
Wire Wire Line
	2300 2550 2300 2850
$Comp
L Device:R R13
U 1 1 5D748745
P 2300 3000
F 0 "R13" H 2370 3046 50  0000 L CNN
F 1 "100" H 2370 2955 50  0000 L CNN
F 2 "Resistor_SMD:R_0603_1608Metric_Pad1.05x0.95mm_HandSolder" V 2230 3000 50  0001 C CNN
F 3 "~" H 2300 3000 50  0001 C CNN
F 4 "RHM100DCT-ND" H 2300 3000 50  0001 C CNN "Digikey PN"
	1    2300 3000
	1    0    0    -1  
$EndComp
Wire Wire Line
	2300 3150 2300 3250
Text Label 2300 3250 0    50   ~ 0
led_drain
Wire Wire Line
	3250 2450 3250 2550
Wire Wire Line
	3250 2550 3500 2550
Wire Wire Line
	3500 2550 3500 2850
$Comp
L Device:R R17
U 1 1 5D74CD8E
P 3500 3000
F 0 "R17" H 3570 3046 50  0000 L CNN
F 1 "100" H 3570 2955 50  0000 L CNN
F 2 "Resistor_SMD:R_0603_1608Metric_Pad1.05x0.95mm_HandSolder" V 3430 3000 50  0001 C CNN
F 3 "~" H 3500 3000 50  0001 C CNN
F 4 "RHM100DCT-ND" H 3500 3000 50  0001 C CNN "Digikey PN"
	1    3500 3000
	1    0    0    -1  
$EndComp
Wire Wire Line
	4300 2450 4300 2550
Wire Wire Line
	4300 2550 4550 2550
Wire Wire Line
	4550 2550 4550 2850
$Comp
L Device:R R21
U 1 1 5D74E247
P 4550 3000
F 0 "R21" H 4620 3046 50  0000 L CNN
F 1 "100" H 4620 2955 50  0000 L CNN
F 2 "Resistor_SMD:R_0603_1608Metric_Pad1.05x0.95mm_HandSolder" V 4480 3000 50  0001 C CNN
F 3 "~" H 4550 3000 50  0001 C CNN
F 4 "RHM100DCT-ND" H 4550 3000 50  0001 C CNN "Digikey PN"
	1    4550 3000
	1    0    0    -1  
$EndComp
Wire Wire Line
	2050 4900 2050 5000
Wire Wire Line
	2050 5000 2300 5000
Wire Wire Line
	2300 5000 2300 5300
$Comp
L Device:R R14
U 1 1 5D74F70C
P 2300 5450
F 0 "R14" H 2370 5496 50  0000 L CNN
F 1 "100" H 2370 5405 50  0000 L CNN
F 2 "Resistor_SMD:R_0603_1608Metric_Pad1.05x0.95mm_HandSolder" V 2230 5450 50  0001 C CNN
F 3 "~" H 2300 5450 50  0001 C CNN
F 4 "RHM100DCT-ND" H 2300 5450 50  0001 C CNN "Digikey PN"
	1    2300 5450
	1    0    0    -1  
$EndComp
Wire Wire Line
	3250 4900 3250 5000
Wire Wire Line
	3250 5000 3500 5000
Wire Wire Line
	3500 5000 3500 5300
$Comp
L Device:R R18
U 1 1 5D750E25
P 3500 5450
F 0 "R18" H 3570 5496 50  0000 L CNN
F 1 "100" H 3570 5405 50  0000 L CNN
F 2 "Resistor_SMD:R_0603_1608Metric_Pad1.05x0.95mm_HandSolder" V 3430 5450 50  0001 C CNN
F 3 "~" H 3500 5450 50  0001 C CNN
F 4 "RHM100DCT-ND" H 3500 5450 50  0001 C CNN "Digikey PN"
	1    3500 5450
	1    0    0    -1  
$EndComp
Wire Wire Line
	4300 4900 4300 5000
Wire Wire Line
	4300 5000 4550 5000
Wire Wire Line
	4550 5000 4550 5300
$Comp
L Device:R R22
U 1 1 5D752939
P 4550 5450
F 0 "R22" H 4620 5496 50  0000 L CNN
F 1 "100" H 4620 5405 50  0000 L CNN
F 2 "Resistor_SMD:R_0603_1608Metric_Pad1.05x0.95mm_HandSolder" V 4480 5450 50  0001 C CNN
F 3 "~" H 4550 5450 50  0001 C CNN
F 4 "RHM100DCT-ND" H 4550 5450 50  0001 C CNN "Digikey PN"
	1    4550 5450
	1    0    0    -1  
$EndComp
Wire Wire Line
	3500 3150 3500 3250
Text Label 3500 3250 0    50   ~ 0
led_drain
Wire Wire Line
	4550 3150 4550 3250
Text Label 4550 3250 0    50   ~ 0
led_drain
Wire Wire Line
	2300 5600 2300 5700
Text Label 2300 5700 0    50   ~ 0
led_drain
Wire Wire Line
	3500 5600 3500 5700
Text Label 3500 5700 0    50   ~ 0
led_drain
Wire Wire Line
	4550 5600 4550 5700
Text Label 4550 5700 0    50   ~ 0
led_drain
$EndSCHEMATC
