EESchema Schematic File Version 4
LIBS:horse_feeder-cache
EELAYER 30 0
EELAYER END
$Descr A4 11693 8268
encoding utf-8
Sheet 6 6
Title ""
Date ""
Rev ""
Comp ""
Comment1 ""
Comment2 ""
Comment3 ""
Comment4 ""
$EndDescr
Text Label 1700 2600 2    50   ~ 0
latch_0
Text HLabel 1850 2850 0    50   Input ~ 0
latch_0_control
Wire Wire Line
	1850 2950 1850 2850
Wire Wire Line
	2150 3150 2150 3300
$Comp
L power:+12V #PWR?
U 1 1 5D490242
P 2300 2150
AR Path="/5D490242" Ref="#PWR?"  Part="1" 
AR Path="/5D42F764/5D490242" Ref="#PWR075"  Part="1" 
F 0 "#PWR075" H 2300 2000 50  0001 C CNN
F 1 "+12V" H 2315 2323 50  0000 C CNN
F 2 "" H 2300 2150 50  0001 C CNN
F 3 "" H 2300 2150 50  0001 C CNN
	1    2300 2150
	1    0    0    -1  
$EndComp
Wire Wire Line
	2300 2300 2300 2150
$Comp
L power:GND #PWR?
U 1 1 5D490238
P 2150 3300
AR Path="/5D490238" Ref="#PWR?"  Part="1" 
AR Path="/5D42F764/5D490238" Ref="#PWR073"  Part="1" 
F 0 "#PWR073" H 2150 3050 50  0001 C CNN
F 1 "GND" H 2155 3127 50  0000 C CNN
F 2 "" H 2150 3300 50  0001 C CNN
F 3 "" H 2150 3300 50  0001 C CNN
	1    2150 3300
	1    0    0    -1  
$EndComp
$Comp
L Device:Q_NMOS_GDS Q?
U 1 1 5D490232
P 2050 2950
AR Path="/5D490232" Ref="Q?"  Part="1" 
AR Path="/5D42F764/5D490232" Ref="Q4"  Part="1" 
F 0 "Q4" H 2256 2996 50  0000 L CNN
F 1 "Q_NMOS_GDS" H 2256 2905 50  0000 L CNN
F 2 "Package_TO_SOT_SMD:TO-252-2" H 2250 3050 50  0001 C CNN
F 3 "~" H 2050 2950 50  0001 C CNN
F 4 "NTD5867NLT4GOSCT-ND" H 2050 2950 50  0001 C CNN "Digikey PN"
	1    2050 2950
	1    0    0    -1  
$EndComp
Wire Wire Line
	2150 2600 2150 2750
$Comp
L Device:D D2
U 1 1 5D56AB06
P 2300 2450
F 0 "D2" V 2254 2529 50  0000 L CNN
F 1 "D" V 2345 2529 50  0000 L CNN
F 2 "Diode_SMD:D_0603_1608Metric_Pad1.05x0.95mm_HandSolder" H 2300 2450 50  0001 C CNN
F 3 "~" H 2300 2450 50  0001 C CNN
F 4 "TS4148CRZGCT-ND" H 2300 2450 50  0001 C CNN "Digikey PN"
	1    2300 2450
	0    1    1    0   
$EndComp
Wire Wire Line
	2300 2600 2150 2600
Connection ~ 2150 2600
$Comp
L Connector_Generic:Conn_01x01 J7
U 1 1 5D6D32FF
P 1800 2400
F 0 "J7" V 2000 2450 50  0000 R CNN
F 1 "Conn_01x01" V 1900 2650 50  0000 R CNN
F 2 "Connector_Wire:SolderWirePad_1x01_Drill1.2mm" H 1800 2400 50  0001 C CNN
F 3 "~" H 1800 2400 50  0001 C CNN
F 4 "~" H 1800 2400 50  0001 C CNN "Digikey PN"
	1    1800 2400
	0    -1   -1   0   
$EndComp
Wire Wire Line
	1700 2600 1800 2600
Connection ~ 1800 2600
Wire Wire Line
	1800 2600 2150 2600
Text Label 3350 2600 2    50   ~ 0
latch_1
Text HLabel 3500 2850 0    50   Input ~ 0
latch_1_control
Wire Wire Line
	3500 2950 3500 2850
Wire Wire Line
	3800 3150 3800 3300
$Comp
L power:+12V #PWR?
U 1 1 5D6E2A43
P 3950 2150
AR Path="/5D6E2A43" Ref="#PWR?"  Part="1" 
AR Path="/5D42F764/5D6E2A43" Ref="#PWR079"  Part="1" 
F 0 "#PWR079" H 3950 2000 50  0001 C CNN
F 1 "+12V" H 3965 2323 50  0000 C CNN
F 2 "" H 3950 2150 50  0001 C CNN
F 3 "" H 3950 2150 50  0001 C CNN
	1    3950 2150
	1    0    0    -1  
$EndComp
Wire Wire Line
	3950 2300 3950 2150
$Comp
L power:GND #PWR?
U 1 1 5D6E2A4A
P 3800 3300
AR Path="/5D6E2A4A" Ref="#PWR?"  Part="1" 
AR Path="/5D42F764/5D6E2A4A" Ref="#PWR077"  Part="1" 
F 0 "#PWR077" H 3800 3050 50  0001 C CNN
F 1 "GND" H 3805 3127 50  0000 C CNN
F 2 "" H 3800 3300 50  0001 C CNN
F 3 "" H 3800 3300 50  0001 C CNN
	1    3800 3300
	1    0    0    -1  
$EndComp
Wire Wire Line
	3800 2600 3800 2750
$Comp
L Device:D D4
U 1 1 5D6E2A58
P 3950 2450
F 0 "D4" V 3904 2529 50  0000 L CNN
F 1 "D" V 3995 2529 50  0000 L CNN
F 2 "Diode_SMD:D_0603_1608Metric_Pad1.05x0.95mm_HandSolder" H 3950 2450 50  0001 C CNN
F 3 "~" H 3950 2450 50  0001 C CNN
F 4 "TS4148CRZGCT-ND" H 3950 2450 50  0001 C CNN "Digikey PN"
	1    3950 2450
	0    1    1    0   
$EndComp
Wire Wire Line
	3950 2600 3800 2600
Connection ~ 3800 2600
$Comp
L Connector_Generic:Conn_01x01 J9
U 1 1 5D6E2A60
P 3450 2400
F 0 "J9" V 3650 2450 50  0000 R CNN
F 1 "Conn_01x01" V 3550 2650 50  0000 R CNN
F 2 "Connector_Wire:SolderWirePad_1x01_Drill1.2mm" H 3450 2400 50  0001 C CNN
F 3 "~" H 3450 2400 50  0001 C CNN
F 4 "~" H 3450 2400 50  0001 C CNN "Digikey PN"
	1    3450 2400
	0    -1   -1   0   
$EndComp
Wire Wire Line
	3350 2600 3450 2600
Connection ~ 3450 2600
Wire Wire Line
	3450 2600 3800 2600
Text Label 5000 2600 2    50   ~ 0
latch_2
Text HLabel 5150 2850 0    50   Input ~ 0
latch_2_control
Wire Wire Line
	5150 2950 5150 2850
Wire Wire Line
	5450 3150 5450 3300
$Comp
L power:+12V #PWR?
U 1 1 5D6E8175
P 5600 2150
AR Path="/5D6E8175" Ref="#PWR?"  Part="1" 
AR Path="/5D42F764/5D6E8175" Ref="#PWR083"  Part="1" 
F 0 "#PWR083" H 5600 2000 50  0001 C CNN
F 1 "+12V" H 5615 2323 50  0000 C CNN
F 2 "" H 5600 2150 50  0001 C CNN
F 3 "" H 5600 2150 50  0001 C CNN
	1    5600 2150
	1    0    0    -1  
$EndComp
Wire Wire Line
	5600 2300 5600 2150
$Comp
L power:GND #PWR?
U 1 1 5D6E817C
P 5450 3300
AR Path="/5D6E817C" Ref="#PWR?"  Part="1" 
AR Path="/5D42F764/5D6E817C" Ref="#PWR081"  Part="1" 
F 0 "#PWR081" H 5450 3050 50  0001 C CNN
F 1 "GND" H 5455 3127 50  0000 C CNN
F 2 "" H 5450 3300 50  0001 C CNN
F 3 "" H 5450 3300 50  0001 C CNN
	1    5450 3300
	1    0    0    -1  
$EndComp
Wire Wire Line
	5450 2600 5450 2750
$Comp
L Device:D D6
U 1 1 5D6E818A
P 5600 2450
F 0 "D6" V 5554 2529 50  0000 L CNN
F 1 "D" V 5645 2529 50  0000 L CNN
F 2 "Diode_SMD:D_0603_1608Metric_Pad1.05x0.95mm_HandSolder" H 5600 2450 50  0001 C CNN
F 3 "~" H 5600 2450 50  0001 C CNN
F 4 "TS4148CRZGCT-ND" H 5600 2450 50  0001 C CNN "Digikey PN"
	1    5600 2450
	0    1    1    0   
$EndComp
Wire Wire Line
	5600 2600 5450 2600
Connection ~ 5450 2600
$Comp
L Connector_Generic:Conn_01x01 J11
U 1 1 5D6E8192
P 5100 2400
F 0 "J11" V 5300 2450 50  0000 R CNN
F 1 "Conn_01x01" V 5200 2650 50  0000 R CNN
F 2 "Connector_Wire:SolderWirePad_1x01_Drill1.2mm" H 5100 2400 50  0001 C CNN
F 3 "~" H 5100 2400 50  0001 C CNN
F 4 "~" H 5100 2400 50  0001 C CNN "Digikey PN"
	1    5100 2400
	0    -1   -1   0   
$EndComp
Wire Wire Line
	5000 2600 5100 2600
Connection ~ 5100 2600
Wire Wire Line
	5100 2600 5450 2600
Text Label 6550 2600 2    50   ~ 0
latch_3
Text HLabel 6700 2850 0    50   Input ~ 0
latch_3_control
Wire Wire Line
	6700 2950 6700 2850
Wire Wire Line
	7000 3150 7000 3300
$Comp
L power:+12V #PWR?
U 1 1 5D6EE15A
P 7150 2150
AR Path="/5D6EE15A" Ref="#PWR?"  Part="1" 
AR Path="/5D42F764/5D6EE15A" Ref="#PWR087"  Part="1" 
F 0 "#PWR087" H 7150 2000 50  0001 C CNN
F 1 "+12V" H 7165 2323 50  0000 C CNN
F 2 "" H 7150 2150 50  0001 C CNN
F 3 "" H 7150 2150 50  0001 C CNN
	1    7150 2150
	1    0    0    -1  
$EndComp
Wire Wire Line
	7150 2300 7150 2150
$Comp
L power:GND #PWR?
U 1 1 5D6EE161
P 7000 3300
AR Path="/5D6EE161" Ref="#PWR?"  Part="1" 
AR Path="/5D42F764/5D6EE161" Ref="#PWR085"  Part="1" 
F 0 "#PWR085" H 7000 3050 50  0001 C CNN
F 1 "GND" H 7005 3127 50  0000 C CNN
F 2 "" H 7000 3300 50  0001 C CNN
F 3 "" H 7000 3300 50  0001 C CNN
	1    7000 3300
	1    0    0    -1  
$EndComp
Wire Wire Line
	7000 2600 7000 2750
$Comp
L Device:D D8
U 1 1 5D6EE16F
P 7150 2450
F 0 "D8" V 7104 2529 50  0000 L CNN
F 1 "D" V 7195 2529 50  0000 L CNN
F 2 "Diode_SMD:D_0603_1608Metric_Pad1.05x0.95mm_HandSolder" H 7150 2450 50  0001 C CNN
F 3 "~" H 7150 2450 50  0001 C CNN
F 4 "TS4148CRZGCT-ND" H 7150 2450 50  0001 C CNN "Digikey PN"
	1    7150 2450
	0    1    1    0   
$EndComp
Wire Wire Line
	7150 2600 7000 2600
Connection ~ 7000 2600
$Comp
L Connector_Generic:Conn_01x01 J13
U 1 1 5D6EE177
P 6650 2400
F 0 "J13" V 6850 2450 50  0000 R CNN
F 1 "Conn_01x01" V 6750 2650 50  0000 R CNN
F 2 "Connector_Wire:SolderWirePad_1x01_Drill1.2mm" H 6650 2400 50  0001 C CNN
F 3 "~" H 6650 2400 50  0001 C CNN
F 4 "~" H 6650 2400 50  0001 C CNN "Digikey PN"
	1    6650 2400
	0    -1   -1   0   
$EndComp
Wire Wire Line
	6550 2600 6650 2600
Connection ~ 6650 2600
Wire Wire Line
	6650 2600 7000 2600
Text Label 8200 2600 2    50   ~ 0
latch_4
Text HLabel 8350 2850 0    50   Input ~ 0
latch_4_control
Wire Wire Line
	8350 2950 8350 2850
Wire Wire Line
	8650 3150 8650 3300
$Comp
L power:+12V #PWR?
U 1 1 5D6EE184
P 8800 2150
AR Path="/5D6EE184" Ref="#PWR?"  Part="1" 
AR Path="/5D42F764/5D6EE184" Ref="#PWR091"  Part="1" 
F 0 "#PWR091" H 8800 2000 50  0001 C CNN
F 1 "+12V" H 8815 2323 50  0000 C CNN
F 2 "" H 8800 2150 50  0001 C CNN
F 3 "" H 8800 2150 50  0001 C CNN
	1    8800 2150
	1    0    0    -1  
$EndComp
Wire Wire Line
	8800 2300 8800 2150
$Comp
L power:GND #PWR?
U 1 1 5D6EE18B
P 8650 3300
AR Path="/5D6EE18B" Ref="#PWR?"  Part="1" 
AR Path="/5D42F764/5D6EE18B" Ref="#PWR089"  Part="1" 
F 0 "#PWR089" H 8650 3050 50  0001 C CNN
F 1 "GND" H 8655 3127 50  0000 C CNN
F 2 "" H 8650 3300 50  0001 C CNN
F 3 "" H 8650 3300 50  0001 C CNN
	1    8650 3300
	1    0    0    -1  
$EndComp
Wire Wire Line
	8650 2600 8650 2750
$Comp
L Device:D D10
U 1 1 5D6EE199
P 8800 2450
F 0 "D10" V 8754 2529 50  0000 L CNN
F 1 "D" V 8845 2529 50  0000 L CNN
F 2 "Diode_SMD:D_0603_1608Metric_Pad1.05x0.95mm_HandSolder" H 8800 2450 50  0001 C CNN
F 3 "~" H 8800 2450 50  0001 C CNN
F 4 "TS4148CRZGCT-ND" H 8800 2450 50  0001 C CNN "Digikey PN"
	1    8800 2450
	0    1    1    0   
$EndComp
Wire Wire Line
	8800 2600 8650 2600
Connection ~ 8650 2600
$Comp
L Connector_Generic:Conn_01x01 J15
U 1 1 5D6EE1A1
P 8300 2400
F 0 "J15" V 8500 2450 50  0000 R CNN
F 1 "Conn_01x01" V 8400 2650 50  0000 R CNN
F 2 "Connector_Wire:SolderWirePad_1x01_Drill1.2mm" H 8300 2400 50  0001 C CNN
F 3 "~" H 8300 2400 50  0001 C CNN
F 4 "~" H 8300 2400 50  0001 C CNN "Digikey PN"
	1    8300 2400
	0    -1   -1   0   
$EndComp
Wire Wire Line
	8200 2600 8300 2600
Connection ~ 8300 2600
Wire Wire Line
	8300 2600 8650 2600
Text Label 1750 4350 2    50   ~ 0
latch_5
Text HLabel 1900 4600 0    50   Input ~ 0
latch_5_control
Wire Wire Line
	1900 4700 1900 4600
Wire Wire Line
	2200 4900 2200 5050
$Comp
L power:+12V #PWR?
U 1 1 5D703A24
P 2350 3900
AR Path="/5D703A24" Ref="#PWR?"  Part="1" 
AR Path="/5D42F764/5D703A24" Ref="#PWR076"  Part="1" 
F 0 "#PWR076" H 2350 3750 50  0001 C CNN
F 1 "+12V" H 2365 4073 50  0000 C CNN
F 2 "" H 2350 3900 50  0001 C CNN
F 3 "" H 2350 3900 50  0001 C CNN
	1    2350 3900
	1    0    0    -1  
$EndComp
Wire Wire Line
	2350 4050 2350 3900
$Comp
L power:GND #PWR?
U 1 1 5D703A2B
P 2200 5050
AR Path="/5D703A2B" Ref="#PWR?"  Part="1" 
AR Path="/5D42F764/5D703A2B" Ref="#PWR074"  Part="1" 
F 0 "#PWR074" H 2200 4800 50  0001 C CNN
F 1 "GND" H 2205 4877 50  0000 C CNN
F 2 "" H 2200 5050 50  0001 C CNN
F 3 "" H 2200 5050 50  0001 C CNN
	1    2200 5050
	1    0    0    -1  
$EndComp
Wire Wire Line
	2200 4350 2200 4500
$Comp
L Device:D D3
U 1 1 5D703A39
P 2350 4200
F 0 "D3" V 2304 4279 50  0000 L CNN
F 1 "D" V 2395 4279 50  0000 L CNN
F 2 "Diode_SMD:D_0603_1608Metric_Pad1.05x0.95mm_HandSolder" H 2350 4200 50  0001 C CNN
F 3 "~" H 2350 4200 50  0001 C CNN
F 4 "TS4148CRZGCT-ND" H 2350 4200 50  0001 C CNN "Digikey PN"
	1    2350 4200
	0    1    1    0   
$EndComp
Wire Wire Line
	2350 4350 2200 4350
Connection ~ 2200 4350
$Comp
L Connector_Generic:Conn_01x01 J8
U 1 1 5D703A41
P 1850 4150
F 0 "J8" V 2050 4200 50  0000 R CNN
F 1 "Conn_01x01" V 1950 4400 50  0000 R CNN
F 2 "Connector_Wire:SolderWirePad_1x01_Drill1.2mm" H 1850 4150 50  0001 C CNN
F 3 "~" H 1850 4150 50  0001 C CNN
F 4 "~" H 1850 4150 50  0001 C CNN "Digikey PN"
	1    1850 4150
	0    -1   -1   0   
$EndComp
Wire Wire Line
	1750 4350 1850 4350
Connection ~ 1850 4350
Wire Wire Line
	1850 4350 2200 4350
Text Label 3400 4350 2    50   ~ 0
latch_6
Text HLabel 3550 4600 0    50   Input ~ 0
latch_6_control
Wire Wire Line
	3550 4700 3550 4600
Wire Wire Line
	3850 4900 3850 5050
$Comp
L power:+12V #PWR?
U 1 1 5D703A4E
P 4000 3900
AR Path="/5D703A4E" Ref="#PWR?"  Part="1" 
AR Path="/5D42F764/5D703A4E" Ref="#PWR080"  Part="1" 
F 0 "#PWR080" H 4000 3750 50  0001 C CNN
F 1 "+12V" H 4015 4073 50  0000 C CNN
F 2 "" H 4000 3900 50  0001 C CNN
F 3 "" H 4000 3900 50  0001 C CNN
	1    4000 3900
	1    0    0    -1  
$EndComp
Wire Wire Line
	4000 4050 4000 3900
$Comp
L power:GND #PWR?
U 1 1 5D703A55
P 3850 5050
AR Path="/5D703A55" Ref="#PWR?"  Part="1" 
AR Path="/5D42F764/5D703A55" Ref="#PWR078"  Part="1" 
F 0 "#PWR078" H 3850 4800 50  0001 C CNN
F 1 "GND" H 3855 4877 50  0000 C CNN
F 2 "" H 3850 5050 50  0001 C CNN
F 3 "" H 3850 5050 50  0001 C CNN
	1    3850 5050
	1    0    0    -1  
$EndComp
Wire Wire Line
	3850 4350 3850 4500
$Comp
L Device:D D5
U 1 1 5D703A63
P 4000 4200
F 0 "D5" V 3954 4279 50  0000 L CNN
F 1 "D" V 4045 4279 50  0000 L CNN
F 2 "Diode_SMD:D_0603_1608Metric_Pad1.05x0.95mm_HandSolder" H 4000 4200 50  0001 C CNN
F 3 "~" H 4000 4200 50  0001 C CNN
F 4 "TS4148CRZGCT-ND" H 4000 4200 50  0001 C CNN "Digikey PN"
	1    4000 4200
	0    1    1    0   
$EndComp
Wire Wire Line
	4000 4350 3850 4350
Connection ~ 3850 4350
$Comp
L Connector_Generic:Conn_01x01 J10
U 1 1 5D703A6B
P 3500 4150
F 0 "J10" V 3700 4200 50  0000 R CNN
F 1 "Conn_01x01" V 3600 4400 50  0000 R CNN
F 2 "Connector_Wire:SolderWirePad_1x01_Drill1.2mm" H 3500 4150 50  0001 C CNN
F 3 "~" H 3500 4150 50  0001 C CNN
F 4 "~" H 3500 4150 50  0001 C CNN "Digikey PN"
	1    3500 4150
	0    -1   -1   0   
$EndComp
Wire Wire Line
	3400 4350 3500 4350
Connection ~ 3500 4350
Wire Wire Line
	3500 4350 3850 4350
Text Label 5050 4350 2    50   ~ 0
latch_7
Text HLabel 5200 4600 0    50   Input ~ 0
latch_7_control
$Comp
L power:+12V #PWR?
U 1 1 5D703A78
P 5650 3900
AR Path="/5D703A78" Ref="#PWR?"  Part="1" 
AR Path="/5D42F764/5D703A78" Ref="#PWR084"  Part="1" 
F 0 "#PWR084" H 5650 3750 50  0001 C CNN
F 1 "+12V" H 5665 4073 50  0000 C CNN
F 2 "" H 5650 3900 50  0001 C CNN
F 3 "" H 5650 3900 50  0001 C CNN
	1    5650 3900
	1    0    0    -1  
$EndComp
$Comp
L power:GND #PWR?
U 1 1 5D703A7F
P 5500 5050
AR Path="/5D703A7F" Ref="#PWR?"  Part="1" 
AR Path="/5D42F764/5D703A7F" Ref="#PWR082"  Part="1" 
F 0 "#PWR082" H 5500 4800 50  0001 C CNN
F 1 "GND" H 5505 4877 50  0000 C CNN
F 2 "" H 5500 5050 50  0001 C CNN
F 3 "" H 5500 5050 50  0001 C CNN
	1    5500 5050
	1    0    0    -1  
$EndComp
$Comp
L Device:D D7
U 1 1 5D703A8D
P 5650 4200
F 0 "D7" V 5604 4279 50  0000 L CNN
F 1 "D" V 5695 4279 50  0000 L CNN
F 2 "Diode_SMD:D_0603_1608Metric_Pad1.05x0.95mm_HandSolder" H 5650 4200 50  0001 C CNN
F 3 "~" H 5650 4200 50  0001 C CNN
F 4 "TS4148CRZGCT-ND" H 5650 4200 50  0001 C CNN "Digikey PN"
	1    5650 4200
	0    1    1    0   
$EndComp
$Comp
L Connector_Generic:Conn_01x01 J12
U 1 1 5D703A95
P 5150 4150
F 0 "J12" V 5350 4200 50  0000 R CNN
F 1 "Conn_01x01" V 5250 4400 50  0000 R CNN
F 2 "Connector_Wire:SolderWirePad_1x01_Drill1.2mm" H 5150 4150 50  0001 C CNN
F 3 "~" H 5150 4150 50  0001 C CNN
F 4 "~" H 5150 4150 50  0001 C CNN "Digikey PN"
	1    5150 4150
	0    -1   -1   0   
$EndComp
Wire Wire Line
	5050 4350 5150 4350
Text Label 6600 4350 2    50   ~ 0
latch_8
Text HLabel 6750 4600 0    50   Input ~ 0
latch_8_control
Wire Wire Line
	6750 4700 6750 4600
Wire Wire Line
	7050 4900 7050 5050
$Comp
L power:+12V #PWR?
U 1 1 5D703AA2
P 7200 3900
AR Path="/5D703AA2" Ref="#PWR?"  Part="1" 
AR Path="/5D42F764/5D703AA2" Ref="#PWR088"  Part="1" 
F 0 "#PWR088" H 7200 3750 50  0001 C CNN
F 1 "+12V" H 7215 4073 50  0000 C CNN
F 2 "" H 7200 3900 50  0001 C CNN
F 3 "" H 7200 3900 50  0001 C CNN
	1    7200 3900
	1    0    0    -1  
$EndComp
Wire Wire Line
	7200 4050 7200 3900
$Comp
L power:GND #PWR?
U 1 1 5D703AA9
P 7050 5050
AR Path="/5D703AA9" Ref="#PWR?"  Part="1" 
AR Path="/5D42F764/5D703AA9" Ref="#PWR086"  Part="1" 
F 0 "#PWR086" H 7050 4800 50  0001 C CNN
F 1 "GND" H 7055 4877 50  0000 C CNN
F 2 "" H 7050 5050 50  0001 C CNN
F 3 "" H 7050 5050 50  0001 C CNN
	1    7050 5050
	1    0    0    -1  
$EndComp
Wire Wire Line
	7050 4350 7050 4500
$Comp
L Device:D D9
U 1 1 5D703AB7
P 7200 4200
F 0 "D9" V 7154 4279 50  0000 L CNN
F 1 "D" V 7245 4279 50  0000 L CNN
F 2 "Diode_SMD:D_0603_1608Metric_Pad1.05x0.95mm_HandSolder" H 7200 4200 50  0001 C CNN
F 3 "~" H 7200 4200 50  0001 C CNN
F 4 "TS4148CRZGCT-ND" H 7200 4200 50  0001 C CNN "Digikey PN"
	1    7200 4200
	0    1    1    0   
$EndComp
Wire Wire Line
	7200 4350 7050 4350
Connection ~ 7050 4350
$Comp
L Connector_Generic:Conn_01x01 J14
U 1 1 5D703ABF
P 6700 4150
F 0 "J14" V 6900 4200 50  0000 R CNN
F 1 "Conn_01x01" V 6800 4400 50  0000 R CNN
F 2 "Connector_Wire:SolderWirePad_1x01_Drill1.2mm" H 6700 4150 50  0001 C CNN
F 3 "~" H 6700 4150 50  0001 C CNN
F 4 "~" H 6700 4150 50  0001 C CNN "Digikey PN"
	1    6700 4150
	0    -1   -1   0   
$EndComp
Wire Wire Line
	6600 4350 6700 4350
Connection ~ 6700 4350
Wire Wire Line
	6700 4350 7050 4350
Text Label 8250 4350 2    50   ~ 0
latch_9
Text HLabel 8400 4600 0    50   Input ~ 0
latch_9_control
Wire Wire Line
	8400 4700 8400 4600
Wire Wire Line
	8700 4900 8700 5050
$Comp
L power:+12V #PWR?
U 1 1 5D703ACC
P 8850 3900
AR Path="/5D703ACC" Ref="#PWR?"  Part="1" 
AR Path="/5D42F764/5D703ACC" Ref="#PWR092"  Part="1" 
F 0 "#PWR092" H 8850 3750 50  0001 C CNN
F 1 "+12V" H 8865 4073 50  0000 C CNN
F 2 "" H 8850 3900 50  0001 C CNN
F 3 "" H 8850 3900 50  0001 C CNN
	1    8850 3900
	1    0    0    -1  
$EndComp
Wire Wire Line
	8850 4050 8850 3900
$Comp
L power:GND #PWR?
U 1 1 5D703AD3
P 8700 5050
AR Path="/5D703AD3" Ref="#PWR?"  Part="1" 
AR Path="/5D42F764/5D703AD3" Ref="#PWR090"  Part="1" 
F 0 "#PWR090" H 8700 4800 50  0001 C CNN
F 1 "GND" H 8705 4877 50  0000 C CNN
F 2 "" H 8700 5050 50  0001 C CNN
F 3 "" H 8700 5050 50  0001 C CNN
	1    8700 5050
	1    0    0    -1  
$EndComp
Wire Wire Line
	8700 4350 8700 4500
$Comp
L Device:D D11
U 1 1 5D703AE1
P 8850 4200
F 0 "D11" V 8804 4279 50  0000 L CNN
F 1 "D" V 8895 4279 50  0000 L CNN
F 2 "Diode_SMD:D_0603_1608Metric_Pad1.05x0.95mm_HandSolder" H 8850 4200 50  0001 C CNN
F 3 "~" H 8850 4200 50  0001 C CNN
F 4 "TS4148CRZGCT-ND" H 8850 4200 50  0001 C CNN "Digikey PN"
	1    8850 4200
	0    1    1    0   
$EndComp
Wire Wire Line
	8850 4350 8700 4350
Connection ~ 8700 4350
$Comp
L Connector_Generic:Conn_01x01 J16
U 1 1 5D703AE9
P 8350 4150
F 0 "J16" V 8550 4200 50  0000 R CNN
F 1 "Conn_01x01" V 8450 4400 50  0000 R CNN
F 2 "Connector_Wire:SolderWirePad_1x01_Drill1.2mm" H 8350 4150 50  0001 C CNN
F 3 "~" H 8350 4150 50  0001 C CNN
F 4 "~" H 8350 4150 50  0001 C CNN "Digikey PN"
	1    8350 4150
	0    -1   -1   0   
$EndComp
Wire Wire Line
	8250 4350 8350 4350
Connection ~ 8350 4350
Wire Wire Line
	8350 4350 8700 4350
$Comp
L Device:Q_NMOS_GDS Q?
U 1 1 5D7BDC78
P 3700 2950
AR Path="/5D7BDC78" Ref="Q?"  Part="1" 
AR Path="/5D42F764/5D7BDC78" Ref="Q6"  Part="1" 
F 0 "Q6" H 3906 2996 50  0000 L CNN
F 1 "Q_NMOS_GDS" H 3906 2905 50  0000 L CNN
F 2 "Package_TO_SOT_SMD:TO-252-2" H 3900 3050 50  0001 C CNN
F 3 "~" H 3700 2950 50  0001 C CNN
F 4 "NTD5867NLT4GOSCT-ND" H 3700 2950 50  0001 C CNN "Digikey PN"
	1    3700 2950
	1    0    0    -1  
$EndComp
$Comp
L Device:Q_NMOS_GDS Q?
U 1 1 5D7BF15D
P 5350 2950
AR Path="/5D7BF15D" Ref="Q?"  Part="1" 
AR Path="/5D42F764/5D7BF15D" Ref="Q8"  Part="1" 
F 0 "Q8" H 5556 2996 50  0000 L CNN
F 1 "Q_NMOS_GDS" H 5556 2905 50  0000 L CNN
F 2 "Package_TO_SOT_SMD:TO-252-2" H 5550 3050 50  0001 C CNN
F 3 "~" H 5350 2950 50  0001 C CNN
F 4 "NTD5867NLT4GOSCT-ND" H 5350 2950 50  0001 C CNN "Digikey PN"
	1    5350 2950
	1    0    0    -1  
$EndComp
$Comp
L Device:Q_NMOS_GDS Q?
U 1 1 5D7C0BBC
P 6900 2950
AR Path="/5D7C0BBC" Ref="Q?"  Part="1" 
AR Path="/5D42F764/5D7C0BBC" Ref="Q10"  Part="1" 
F 0 "Q10" H 7106 2996 50  0000 L CNN
F 1 "Q_NMOS_GDS" H 7106 2905 50  0000 L CNN
F 2 "Package_TO_SOT_SMD:TO-252-2" H 7100 3050 50  0001 C CNN
F 3 "~" H 6900 2950 50  0001 C CNN
F 4 "NTD5867NLT4GOSCT-ND" H 6900 2950 50  0001 C CNN "Digikey PN"
	1    6900 2950
	1    0    0    -1  
$EndComp
$Comp
L Device:Q_NMOS_GDS Q?
U 1 1 5D7C23F3
P 8550 2950
AR Path="/5D7C23F3" Ref="Q?"  Part="1" 
AR Path="/5D42F764/5D7C23F3" Ref="Q12"  Part="1" 
F 0 "Q12" H 8756 2996 50  0000 L CNN
F 1 "Q_NMOS_GDS" H 8756 2905 50  0000 L CNN
F 2 "Package_TO_SOT_SMD:TO-252-2" H 8750 3050 50  0001 C CNN
F 3 "~" H 8550 2950 50  0001 C CNN
F 4 "NTD5867NLT4GOSCT-ND" H 8550 2950 50  0001 C CNN "Digikey PN"
	1    8550 2950
	1    0    0    -1  
$EndComp
$Comp
L Device:Q_NMOS_GDS Q?
U 1 1 5D7C39EA
P 2100 4700
AR Path="/5D7C39EA" Ref="Q?"  Part="1" 
AR Path="/5D42F764/5D7C39EA" Ref="Q5"  Part="1" 
F 0 "Q5" H 2306 4746 50  0000 L CNN
F 1 "Q_NMOS_GDS" H 2306 4655 50  0000 L CNN
F 2 "Package_TO_SOT_SMD:TO-252-2" H 2300 4800 50  0001 C CNN
F 3 "~" H 2100 4700 50  0001 C CNN
F 4 "NTD5867NLT4GOSCT-ND" H 2100 4700 50  0001 C CNN "Digikey PN"
	1    2100 4700
	1    0    0    -1  
$EndComp
$Comp
L Device:Q_NMOS_GDS Q?
U 1 1 5D7C4FAB
P 3750 4700
AR Path="/5D7C4FAB" Ref="Q?"  Part="1" 
AR Path="/5D42F764/5D7C4FAB" Ref="Q7"  Part="1" 
F 0 "Q7" H 3956 4746 50  0000 L CNN
F 1 "Q_NMOS_GDS" H 3956 4655 50  0000 L CNN
F 2 "Package_TO_SOT_SMD:TO-252-2" H 3950 4800 50  0001 C CNN
F 3 "~" H 3750 4700 50  0001 C CNN
F 4 "NTD5867NLT4GOSCT-ND" H 3750 4700 50  0001 C CNN "Digikey PN"
	1    3750 4700
	1    0    0    -1  
$EndComp
$Comp
L Device:Q_NMOS_GDS Q?
U 1 1 5D7C63A8
P 5400 4750
AR Path="/5D7C63A8" Ref="Q?"  Part="1" 
AR Path="/5D42F764/5D7C63A8" Ref="Q9"  Part="1" 
F 0 "Q9" H 5606 4796 50  0000 L CNN
F 1 "Q_NMOS_GDS" H 5606 4705 50  0000 L CNN
F 2 "Package_TO_SOT_SMD:TO-252-2" H 5600 4850 50  0001 C CNN
F 3 "~" H 5400 4750 50  0001 C CNN
F 4 "NTD5867NLT4GOSCT-ND" H 5400 4750 50  0001 C CNN "Digikey PN"
	1    5400 4750
	1    0    0    -1  
$EndComp
$Comp
L Device:Q_NMOS_GDS Q?
U 1 1 5D7C7E8B
P 6950 4700
AR Path="/5D7C7E8B" Ref="Q?"  Part="1" 
AR Path="/5D42F764/5D7C7E8B" Ref="Q11"  Part="1" 
F 0 "Q11" H 7156 4746 50  0000 L CNN
F 1 "Q_NMOS_GDS" H 7156 4655 50  0000 L CNN
F 2 "Package_TO_SOT_SMD:TO-252-2" H 7150 4800 50  0001 C CNN
F 3 "~" H 6950 4700 50  0001 C CNN
F 4 "NTD5867NLT4GOSCT-ND" H 6950 4700 50  0001 C CNN "Digikey PN"
	1    6950 4700
	1    0    0    -1  
$EndComp
$Comp
L Device:Q_NMOS_GDS Q?
U 1 1 5D7C9648
P 8600 4700
AR Path="/5D7C9648" Ref="Q?"  Part="1" 
AR Path="/5D42F764/5D7C9648" Ref="Q13"  Part="1" 
F 0 "Q13" H 8806 4746 50  0000 L CNN
F 1 "Q_NMOS_GDS" H 8806 4655 50  0000 L CNN
F 2 "Package_TO_SOT_SMD:TO-252-2" H 8800 4800 50  0001 C CNN
F 3 "~" H 8600 4700 50  0001 C CNN
F 4 "NTD5867NLT4GOSCT-ND" H 8600 4700 50  0001 C CNN "Digikey PN"
	1    8600 4700
	1    0    0    -1  
$EndComp
Wire Wire Line
	5200 4600 5200 4750
Wire Wire Line
	5650 3900 5650 4050
Wire Wire Line
	5500 4950 5500 5050
Wire Wire Line
	5500 4550 5500 4350
Wire Wire Line
	5500 4350 5650 4350
Wire Wire Line
	5500 4350 5150 4350
Connection ~ 5500 4350
Connection ~ 5150 4350
$EndSCHEMATC
