EESchema Schematic File Version 4
LIBS:horse_feeder-cache
EELAYER 30 0
EELAYER END
$Descr A4 11693 8268
encoding utf-8
Sheet 3 6
Title ""
Date ""
Rev ""
Comp ""
Comment1 ""
Comment2 ""
Comment3 ""
Comment4 ""
$EndDescr
$Comp
L Connector:Screw_Terminal_01x02 J4
U 1 1 5D5057FD
P 900 1250
F 0 "J4" H 818 925 50  0000 C CNN
F 1 "12v Power" H 818 1016 50  0000 C CNN
F 2 "horse_feeder:PHOENIX_1935161" H 900 1250 50  0001 C CNN
F 3 "~" H 900 1250 50  0001 C CNN
F 4 "277-1667-ND" H 900 1250 50  0001 C CNN "Digikey PN"
	1    900  1250
	-1   0    0    1   
$EndComp
Wire Wire Line
	1100 1150 1300 1150
Wire Wire Line
	1300 1150 1300 1050
Wire Wire Line
	1100 1250 1300 1250
Wire Wire Line
	1300 1250 1300 1350
$Comp
L power:+12V #PWR037
U 1 1 5D505807
P 1300 1050
F 0 "#PWR037" H 1300 900 50  0001 C CNN
F 1 "+12V" H 1315 1223 50  0000 C CNN
F 2 "" H 1300 1050 50  0001 C CNN
F 3 "" H 1300 1050 50  0001 C CNN
	1    1300 1050
	1    0    0    -1  
$EndComp
$Comp
L power:GND #PWR038
U 1 1 5D50580D
P 1300 1350
F 0 "#PWR038" H 1300 1100 50  0001 C CNN
F 1 "GND" H 1305 1177 50  0000 C CNN
F 2 "" H 1300 1350 50  0001 C CNN
F 3 "" H 1300 1350 50  0001 C CNN
	1    1300 1350
	1    0    0    -1  
$EndComp
$Comp
L horse_feeder:AP6320x U?
U 1 1 5D514CB5
P 2550 1300
AR Path="/5D514CB5" Ref="U?"  Part="1" 
AR Path="/5D4FC786/5D514CB5" Ref="U2"  Part="1" 
F 0 "U2" H 2575 1715 50  0000 C CNN
F 1 "AP6320x" H 2575 1624 50  0000 C CNN
F 2 "Package_TO_SOT_SMD:TSOT-23-6_HandSoldering" H 2450 1450 50  0001 C CNN
F 3 "https://www.diodes.com/assets/Datasheets/AP63200-AP63201-AP63203-AP63205.pdf" H 2450 1450 50  0001 C CNN
F 4 "AP63205WU-7DICT-ND" H 2550 1300 50  0001 C CNN "Digikey PN"
	1    2550 1300
	1    0    0    -1  
$EndComp
Wire Wire Line
	2250 1150 2200 1150
Wire Wire Line
	2250 1300 2200 1300
Wire Wire Line
	2200 1300 2200 1150
Connection ~ 2200 1150
Wire Wire Line
	2200 1150 1900 1150
Wire Wire Line
	1750 1150 1750 1050
$Comp
L power:+12V #PWR?
U 1 1 5D514CC1
P 1750 1050
AR Path="/5D514CC1" Ref="#PWR?"  Part="1" 
AR Path="/5D4FC786/5D514CC1" Ref="#PWR040"  Part="1" 
F 0 "#PWR040" H 1750 900 50  0001 C CNN
F 1 "+12V" H 1765 1223 50  0000 C CNN
F 2 "" H 1750 1050 50  0001 C CNN
F 3 "" H 1750 1050 50  0001 C CNN
	1    1750 1050
	1    0    0    -1  
$EndComp
$Comp
L Device:C C?
U 1 1 5D514CC7
P 1900 1350
AR Path="/5D514CC7" Ref="C?"  Part="1" 
AR Path="/5D4FC786/5D514CC7" Ref="C8"  Part="1" 
F 0 "C8" H 2015 1396 50  0000 L CNN
F 1 "10u" H 2015 1305 50  0000 L CNN
F 2 "Capacitor_SMD:C_0603_1608Metric_Pad1.05x0.95mm_HandSolder" H 1938 1200 50  0001 C CNN
F 3 "~" H 1900 1350 50  0001 C CNN
F 4 " 490-18214-1-ND " H 1900 1350 50  0001 C CNN "Digikey PN"
	1    1900 1350
	1    0    0    -1  
$EndComp
Wire Wire Line
	2550 1750 2550 1800
$Comp
L power:GND #PWR?
U 1 1 5D514CCE
P 2550 1900
AR Path="/5D514CCE" Ref="#PWR?"  Part="1" 
AR Path="/5D4FC786/5D514CCE" Ref="#PWR041"  Part="1" 
F 0 "#PWR041" H 2550 1650 50  0001 C CNN
F 1 "GND" H 2555 1727 50  0000 C CNN
F 2 "" H 2550 1900 50  0001 C CNN
F 3 "" H 2550 1900 50  0001 C CNN
	1    2550 1900
	1    0    0    -1  
$EndComp
Wire Wire Line
	1900 1200 1900 1150
Connection ~ 1900 1150
Wire Wire Line
	1900 1150 1750 1150
Wire Wire Line
	1900 1500 1900 1800
Wire Wire Line
	1900 1800 2550 1800
Connection ~ 2550 1800
Wire Wire Line
	2550 1800 2550 1900
$Comp
L Device:C C?
U 1 1 5D514CDC
P 3050 950
AR Path="/5D514CDC" Ref="C?"  Part="1" 
AR Path="/5D4FC786/5D514CDC" Ref="C12"  Part="1" 
F 0 "C12" H 3165 996 50  0000 L CNN
F 1 "100n" H 3165 905 50  0000 L CNN
F 2 "Capacitor_SMD:C_0603_1608Metric_Pad1.05x0.95mm_HandSolder" H 3088 800 50  0001 C CNN
F 3 "~" H 3050 950 50  0001 C CNN
F 4 "1276-CL10B104KB8NNNLCT-ND" H 3050 950 50  0001 C CNN "Digikey PN"
	1    3050 950 
	1    0    0    -1  
$EndComp
$Comp
L Device:L L?
U 1 1 5D514CE6
P 3400 1300
AR Path="/5D514CE6" Ref="L?"  Part="1" 
AR Path="/5D4FC786/5D514CE6" Ref="L1"  Part="1" 
F 0 "L1" V 3219 1300 50  0000 C CNN
F 1 "4.7u" V 3310 1300 50  0000 C CNN
F 2 "Inductor_SMD:L_0805_2012Metric_Pad1.15x1.40mm_HandSolder" H 3400 1300 50  0001 C CNN
F 3 "" H 3400 1300 50  0001 C CNN
F 4 "587-4160-1-ND" V 3400 1300 50  0001 C CNN "Digikey PN"
	1    3400 1300
	0    1    1    0   
$EndComp
Wire Wire Line
	3550 1300 3600 1300
Wire Wire Line
	3600 1300 3600 1450
Wire Wire Line
	3600 1450 2900 1450
Connection ~ 3600 1300
Wire Wire Line
	3600 1300 3800 1300
$Comp
L Device:C C?
U 1 1 5D514CF1
P 3800 1550
AR Path="/5D514CF1" Ref="C?"  Part="1" 
AR Path="/5D4FC786/5D514CF1" Ref="C14"  Part="1" 
F 0 "C14" H 3550 1600 50  0000 L CNN
F 1 "22u" H 3550 1500 50  0000 L CNN
F 2 "Capacitor_SMD:C_0603_1608Metric_Pad1.05x0.95mm_HandSolder" H 3838 1400 50  0001 C CNN
F 3 "~" H 3800 1550 50  0001 C CNN
F 4 "1276-6751-1-ND" H 3800 1550 50  0001 C CNN "Digikey PN"
	1    3800 1550
	1    0    0    -1  
$EndComp
Wire Wire Line
	3800 1400 3800 1300
Connection ~ 3800 1300
Wire Wire Line
	3800 1700 3800 1800
Wire Wire Line
	3800 1800 2550 1800
$Comp
L Device:C C?
U 1 1 5D514CFB
P 4050 1550
AR Path="/5D514CFB" Ref="C?"  Part="1" 
AR Path="/5D4FC786/5D514CFB" Ref="C15"  Part="1" 
F 0 "C15" H 3935 1504 50  0000 R CNN
F 1 "22u" H 3935 1595 50  0000 R CNN
F 2 "Capacitor_SMD:C_0603_1608Metric_Pad1.05x0.95mm_HandSolder" H 4088 1400 50  0001 C CNN
F 3 "~" H 4050 1550 50  0001 C CNN
F 4 "1276-6751-1-ND" H 4050 1550 50  0001 C CNN "Digikey PN"
	1    4050 1550
	-1   0    0    1   
$EndComp
Wire Wire Line
	3800 1300 4050 1300
Wire Wire Line
	4050 1400 4050 1300
Connection ~ 4050 1300
Wire Wire Line
	4050 1300 4300 1300
Wire Wire Line
	4050 1700 4050 1800
Wire Wire Line
	4050 1800 3800 1800
Connection ~ 3800 1800
Wire Wire Line
	4300 1300 4300 1200
Text Label 4300 1200 0    50   ~ 0
5vbat
$Comp
L Regulator_Linear:MIC5504-3.3YM5 U?
U 1 1 5D51B7A0
P 5900 1400
AR Path="/5D51B7A0" Ref="U?"  Part="1" 
AR Path="/5D4FC786/5D51B7A0" Ref="U3"  Part="1" 
F 0 "U3" H 5900 1767 50  0000 C CNN
F 1 "MIC5504-3.3YM5" H 5900 1676 50  0000 C CNN
F 2 "Package_TO_SOT_SMD:SOT-23-5" H 5900 1000 50  0001 C CNN
F 3 "http://ww1.microchip.com/downloads/en/DeviceDoc/MIC550X.pdf" H 5650 1650 50  0001 C CNN
F 4 "576-4764-1-ND" H 5900 1400 50  0001 C CNN "Digikey PN"
	1    5900 1400
	1    0    0    -1  
$EndComp
Wire Wire Line
	5500 1300 5450 1300
Wire Wire Line
	5150 1300 5150 1200
Wire Wire Line
	5500 1500 5450 1500
Wire Wire Line
	5450 1500 5450 1300
Connection ~ 5450 1300
Wire Wire Line
	5450 1300 5250 1300
$Comp
L power:+5V #PWR?
U 1 1 5D51B7AC
P 5150 1200
AR Path="/5D51B7AC" Ref="#PWR?"  Part="1" 
AR Path="/5D4FC786/5D51B7AC" Ref="#PWR045"  Part="1" 
F 0 "#PWR045" H 5150 1050 50  0001 C CNN
F 1 "+5V" H 5165 1373 50  0000 C CNN
F 2 "" H 5150 1200 50  0001 C CNN
F 3 "" H 5150 1200 50  0001 C CNN
	1    5150 1200
	1    0    0    -1  
$EndComp
Wire Wire Line
	6300 1300 6400 1300
Wire Wire Line
	6500 1300 6500 1200
$Comp
L power:+3.3V #PWR?
U 1 1 5D51B7B4
P 6500 1200
AR Path="/5D51B7B4" Ref="#PWR?"  Part="1" 
AR Path="/5D4FC786/5D51B7B4" Ref="#PWR049"  Part="1" 
F 0 "#PWR049" H 6500 1050 50  0001 C CNN
F 1 "+3.3V" H 6515 1373 50  0000 C CNN
F 2 "" H 6500 1200 50  0001 C CNN
F 3 "" H 6500 1200 50  0001 C CNN
	1    6500 1200
	1    0    0    -1  
$EndComp
Wire Wire Line
	5900 1700 5900 1750
$Comp
L power:GND #PWR?
U 1 1 5D51B7BB
P 5900 1850
AR Path="/5D51B7BB" Ref="#PWR?"  Part="1" 
AR Path="/5D4FC786/5D51B7BB" Ref="#PWR047"  Part="1" 
F 0 "#PWR047" H 5900 1600 50  0001 C CNN
F 1 "GND" H 5905 1677 50  0000 C CNN
F 2 "" H 5900 1850 50  0001 C CNN
F 3 "" H 5900 1850 50  0001 C CNN
	1    5900 1850
	1    0    0    -1  
$EndComp
$Comp
L Connector_Generic:Conn_01x03 J?
U 1 1 5D521515
P 1350 3100
AR Path="/5D521515" Ref="J?"  Part="1" 
AR Path="/5D4FC786/5D521515" Ref="J5"  Part="1" 
F 0 "J5" V 1222 3280 50  0000 L CNN
F 1 "Conn_01x03_Male" V 1313 3280 50  0000 L CNN
F 2 "Connector_PinHeader_2.54mm:PinHeader_1x03_P2.54mm_Vertical" H 1350 3100 50  0001 C CNN
F 3 "~" H 1350 3100 50  0001 C CNN
F 4 "~" H 1350 3100 50  0001 C CNN "Digikey PN"
	1    1350 3100
	0    1    1    0   
$EndComp
Wire Wire Line
	1350 2900 1350 2750
$Comp
L power:+5V #PWR?
U 1 1 5D52151E
P 1350 2750
AR Path="/5D52151E" Ref="#PWR?"  Part="1" 
AR Path="/5D4FC786/5D52151E" Ref="#PWR039"  Part="1" 
F 0 "#PWR039" H 1350 2600 50  0001 C CNN
F 1 "+5V" H 1365 2923 50  0000 C CNN
F 2 "" H 1350 2750 50  0001 C CNN
F 3 "" H 1350 2750 50  0001 C CNN
	1    1350 2750
	1    0    0    -1  
$EndComp
Text Label 1550 2750 0    50   ~ 0
5vbat
Text Notes 950  3350 0    50   ~ 0
Short pins 1-2 for USB power\nShort pins 2-3 for battery power
Wire Notes Line
	900  2450 2350 2450
Wire Notes Line
	2350 2450 2350 3400
Wire Notes Line
	2350 3400 900  3400
Wire Notes Line
	900  3400 900  2450
$Comp
L power:+BATT #PWR050
U 1 1 5D69183C
P 7450 1250
F 0 "#PWR050" H 7450 1100 50  0001 C CNN
F 1 "+BATT" H 7465 1423 50  0000 C CNN
F 2 "" H 7450 1250 50  0001 C CNN
F 3 "" H 7450 1250 50  0001 C CNN
	1    7450 1250
	1    0    0    -1  
$EndComp
$Comp
L power:GND #PWR051
U 1 1 5D69277D
P 7450 1750
F 0 "#PWR051" H 7450 1500 50  0001 C CNN
F 1 "GND" H 7455 1577 50  0000 C CNN
F 2 "" H 7450 1750 50  0001 C CNN
F 3 "" H 7450 1750 50  0001 C CNN
	1    7450 1750
	1    0    0    -1  
$EndComp
Wire Notes Line
	500  6000 6250 6000
Wire Notes Line
	6250 6000 6250 7750
Text Notes 900  6300 0    150  ~ 0
STM32F103 Decoupling Capacitors
$Comp
L Device:C C7
U 1 1 5D824AAE
P 1650 7250
F 0 "C7" H 1765 7296 50  0000 L CNN
F 1 "100n" H 1765 7205 50  0000 L CNN
F 2 "Capacitor_SMD:C_0603_1608Metric_Pad1.05x0.95mm_HandSolder" H 1688 7100 50  0001 C CNN
F 3 "~" H 1650 7250 50  0001 C CNN
F 4 "1276-CL10B104KB8NNNLCT-ND" H 1650 7250 50  0001 C CNN "Digikey PN"
	1    1650 7250
	1    0    0    -1  
$EndComp
$Comp
L Device:C C9
U 1 1 5D827508
P 2100 7250
F 0 "C9" H 2215 7296 50  0000 L CNN
F 1 "100n" H 2215 7205 50  0000 L CNN
F 2 "Capacitor_SMD:C_0603_1608Metric_Pad1.05x0.95mm_HandSolder" H 2138 7100 50  0001 C CNN
F 3 "~" H 2100 7250 50  0001 C CNN
F 4 "1276-CL10B104KB8NNNLCT-ND" H 2100 7250 50  0001 C CNN "Digikey PN"
	1    2100 7250
	1    0    0    -1  
$EndComp
$Comp
L Device:C C10
U 1 1 5D827F4B
P 2550 7250
F 0 "C10" H 2665 7296 50  0000 L CNN
F 1 "100n" H 2665 7205 50  0000 L CNN
F 2 "Capacitor_SMD:C_0603_1608Metric_Pad1.05x0.95mm_HandSolder" H 2588 7100 50  0001 C CNN
F 3 "~" H 2550 7250 50  0001 C CNN
F 4 "1276-CL10B104KB8NNNLCT-ND" H 2550 7250 50  0001 C CNN "Digikey PN"
	1    2550 7250
	1    0    0    -1  
$EndComp
Wire Wire Line
	1650 7400 2100 7400
Connection ~ 2100 7400
Wire Wire Line
	2100 7400 2550 7400
Wire Wire Line
	1650 7100 2100 7100
Connection ~ 2100 7100
Wire Wire Line
	2100 7100 2550 7100
Wire Wire Line
	1650 7100 900  7100
Connection ~ 1650 7100
$Comp
L Device:C C5
U 1 1 5D82A8C9
P 900 7250
F 0 "C5" H 1015 7296 50  0000 L CNN
F 1 "10u" H 1015 7205 50  0000 L CNN
F 2 "Capacitor_SMD:C_0603_1608Metric_Pad1.05x0.95mm_HandSolder" H 938 7100 50  0001 C CNN
F 3 "~" H 900 7250 50  0001 C CNN
F 4 " 490-18214-1-ND " H 900 7250 50  0001 C CNN "Digikey PN"
	1    900  7250
	1    0    0    -1  
$EndComp
Wire Wire Line
	1650 7400 900  7400
Connection ~ 1650 7400
Wire Wire Line
	900  7400 750  7400
Wire Wire Line
	750  7400 750  7450
Wire Wire Line
	750  7100 750  7050
Wire Wire Line
	750  7100 900  7100
$Comp
L power:GND #PWR033
U 1 1 5D82DCA7
P 750 7450
F 0 "#PWR033" H 750 7200 50  0001 C CNN
F 1 "GND" H 755 7277 50  0000 C CNN
F 2 "" H 750 7450 50  0001 C CNN
F 3 "" H 750 7450 50  0001 C CNN
	1    750  7450
	1    0    0    -1  
$EndComp
$Comp
L power:+3.3V #PWR032
U 1 1 5D845D49
P 750 7050
F 0 "#PWR032" H 750 6900 50  0001 C CNN
F 1 "+3.3V" H 765 7223 50  0000 C CNN
F 2 "" H 750 7050 50  0001 C CNN
F 3 "" H 750 7050 50  0001 C CNN
	1    750  7050
	1    0    0    -1  
$EndComp
Connection ~ 900  7100
Connection ~ 900  7400
Wire Notes Line
	1450 6950 3300 6950
Wire Notes Line
	3300 6950 3300 7600
Wire Notes Line
	3300 7600 1450 7600
Wire Notes Line
	1450 7600 1450 6950
Text Notes 1650 7550 0    50   ~ 0
Place near each VDD pin\n
Wire Wire Line
	2950 7100 3600 7100
Wire Wire Line
	2950 7400 3600 7400
$Comp
L Device:C C13
U 1 1 5D851A46
P 3600 7250
F 0 "C13" H 3715 7296 50  0000 L CNN
F 1 "100n" H 3715 7205 50  0000 L CNN
F 2 "Capacitor_SMD:C_0603_1608Metric_Pad1.05x0.95mm_HandSolder" H 3638 7100 50  0001 C CNN
F 3 "~" H 3600 7250 50  0001 C CNN
F 4 "1276-CL10B104KB8NNNLCT-ND" H 3600 7250 50  0001 C CNN "Digikey PN"
	1    3600 7250
	1    0    0    -1  
$EndComp
Wire Notes Line
	3400 6950 3400 7650
Text Notes 3450 7600 0    50   ~ 0
Place near\nVBAT pin
Wire Notes Line
	3400 7650 3950 7650
Wire Notes Line
	3950 7650 3950 6950
Wire Notes Line
	3950 6950 3400 6950
Wire Wire Line
	4850 6850 4850 6750
Wire Wire Line
	4000 6850 4000 6750
$Comp
L power:+3.3V #PWR042
U 1 1 5D86520F
P 4000 6750
F 0 "#PWR042" H 4000 6600 50  0001 C CNN
F 1 "+3.3V" H 4015 6923 50  0000 C CNN
F 2 "" H 4000 6750 50  0001 C CNN
F 3 "" H 4000 6750 50  0001 C CNN
	1    4000 6750
	1    0    0    -1  
$EndComp
$Comp
L power:+3.3VADC #PWR044
U 1 1 5D8654F6
P 4850 6750
F 0 "#PWR044" H 5000 6700 50  0001 C CNN
F 1 "+3.3VADC" H 4870 6893 50  0000 C CNN
F 2 "" H 4850 6750 50  0001 C CNN
F 3 "" H 4850 6750 50  0001 C CNN
	1    4850 6750
	1    0    0    -1  
$EndComp
$Comp
L Device:R R23
U 1 1 5D867785
P 4350 6850
F 0 "R23" V 4143 6850 50  0000 C CNN
F 1 "10" V 4234 6850 50  0000 C CNN
F 2 "Resistor_SMD:R_0603_1608Metric_Pad1.05x0.95mm_HandSolder" V 4280 6850 50  0001 C CNN
F 3 "~" H 4350 6850 50  0001 C CNN
F 4 " A130079CT-ND" H 4350 6850 50  0001 C CNN "Digikey PN"
	1    4350 6850
	0    1    1    0   
$EndComp
Wire Wire Line
	4500 6850 4600 6850
$Comp
L Device:C C16
U 1 1 5D86B324
P 4600 7000
F 0 "C16" H 4715 7046 50  0000 L CNN
F 1 "1u" H 4715 6955 50  0000 L CNN
F 2 "Capacitor_SMD:C_0603_1608Metric_Pad1.05x0.95mm_HandSolder" H 4638 6850 50  0001 C CNN
F 3 "~" H 4600 7000 50  0001 C CNN
F 4 "1276-1182-1-ND" H 4600 7000 50  0001 C CNN "Digikey PN"
	1    4600 7000
	1    0    0    -1  
$EndComp
Connection ~ 4600 6850
$Comp
L Device:C C17
U 1 1 5D86BA0F
P 5050 7000
F 0 "C17" H 5165 7046 50  0000 L CNN
F 1 "100n" H 5165 6955 50  0000 L CNN
F 2 "Capacitor_SMD:C_0603_1608Metric_Pad1.05x0.95mm_HandSolder" H 5088 6850 50  0001 C CNN
F 3 "~" H 5050 7000 50  0001 C CNN
F 4 "1276-CL10B104KB8NNNLCT-ND" H 5050 7000 50  0001 C CNN "Digikey PN"
	1    5050 7000
	1    0    0    -1  
$EndComp
Wire Wire Line
	4600 6850 4850 6850
Wire Wire Line
	5050 7150 4800 7150
Wire Wire Line
	4800 7150 4800 7200
Connection ~ 4800 7150
Wire Wire Line
	4800 7150 4600 7150
$Comp
L power:GNDA #PWR043
U 1 1 5D870688
P 4800 7200
F 0 "#PWR043" H 4800 6950 50  0001 C CNN
F 1 "GNDA" H 4805 7027 50  0000 C CNN
F 2 "" H 4800 7200 50  0001 C CNN
F 3 "" H 4800 7200 50  0001 C CNN
	1    4800 7200
	1    0    0    -1  
$EndComp
Connection ~ 4850 6850
Wire Wire Line
	4850 6850 5050 6850
Wire Notes Line
	4200 6550 4200 7650
Wire Notes Line
	4200 7650 5400 7650
Wire Notes Line
	5400 7650 5400 6550
Wire Notes Line
	5400 6550 4200 6550
Text Notes 4300 7600 0    50   ~ 0
Place near AVDD \nand AVSS pins
$Comp
L Device:C C6
U 1 1 5D8F1C73
P 950 5200
F 0 "C6" H 1065 5246 50  0000 L CNN
F 1 "100n" H 1065 5155 50  0000 L CNN
F 2 "Capacitor_SMD:C_0603_1608Metric_Pad1.05x0.95mm_HandSolder" H 988 5050 50  0001 C CNN
F 3 "~" H 950 5200 50  0001 C CNN
F 4 "1276-CL10B104KB8NNNLCT-ND" H 950 5200 50  0001 C CNN "Digikey PN"
	1    950  5200
	1    0    0    -1  
$EndComp
Wire Wire Line
	950  5350 950  5400
Wire Wire Line
	950  5050 950  5000
$Comp
L power:GND #PWR035
U 1 1 5D8F1C7E
P 950 5400
F 0 "#PWR035" H 950 5150 50  0001 C CNN
F 1 "GND" H 955 5227 50  0000 C CNN
F 2 "" H 950 5400 50  0001 C CNN
F 3 "" H 950 5400 50  0001 C CNN
	1    950  5400
	1    0    0    -1  
$EndComp
$Comp
L power:+3.3V #PWR034
U 1 1 5D8F1C84
P 950 5000
F 0 "#PWR034" H 950 4850 50  0001 C CNN
F 1 "+3.3V" H 965 5173 50  0000 C CNN
F 2 "" H 950 5000 50  0001 C CNN
F 3 "" H 950 5000 50  0001 C CNN
	1    950  5000
	1    0    0    -1  
$EndComp
Wire Notes Line
	600  5900 1450 5900
Wire Notes Line
	1450 5900 1450 4700
Wire Notes Line
	1450 4700 600  4700
Wire Notes Line
	600  4700 600  5900
Text Notes 650  5800 0    50   ~ 0
Place close to RTC \nVDD and VSS pins\n
$Comp
L Device:Battery_Cell BT1
U 1 1 5D96FF85
P 7450 1550
F 0 "BT1" H 7568 1646 50  0000 L CNN
F 1 "Battery_Cell" H 7568 1555 50  0000 L CNN
F 2 "horse_feeder:BAT-HLD-001" V 7450 1610 50  0001 C CNN
F 3 "~" V 7450 1610 50  0001 C CNN
F 4 "BAT-HLD-001-ND" H 7450 1550 50  0001 C CNN "Digikey PN"
	1    7450 1550
	1    0    0    -1  
$EndComp
Wire Wire Line
	7450 1650 7450 1750
Wire Wire Line
	7450 1250 7450 1350
Wire Wire Line
	4000 6850 4200 6850
Wire Wire Line
	5600 7150 5950 7150
Wire Wire Line
	5950 7150 5950 7200
Wire Wire Line
	5600 7150 5600 7200
$Comp
L power:GND #PWR046
U 1 1 5DD1577B
P 5600 7200
F 0 "#PWR046" H 5600 6950 50  0001 C CNN
F 1 "GND" H 5605 7027 50  0000 C CNN
F 2 "" H 5600 7200 50  0001 C CNN
F 3 "" H 5600 7200 50  0001 C CNN
	1    5600 7200
	1    0    0    -1  
$EndComp
$Comp
L power:GNDA #PWR048
U 1 1 5DD15F3A
P 5950 7200
F 0 "#PWR048" H 5950 6950 50  0001 C CNN
F 1 "GNDA" H 5955 7027 50  0000 C CNN
F 2 "" H 5950 7200 50  0001 C CNN
F 3 "" H 5950 7200 50  0001 C CNN
	1    5950 7200
	1    0    0    -1  
$EndComp
$Comp
L power:VBUS #PWR036
U 1 1 5DD23471
P 1150 2750
F 0 "#PWR036" H 1150 2600 50  0001 C CNN
F 1 "VBUS" H 1165 2923 50  0000 C CNN
F 2 "" H 1150 2750 50  0001 C CNN
F 3 "" H 1150 2750 50  0001 C CNN
	1    1150 2750
	1    0    0    -1  
$EndComp
Wire Wire Line
	1250 2900 1250 2800
Wire Wire Line
	1250 2800 1150 2800
Wire Wire Line
	1150 2800 1150 2750
Wire Wire Line
	1450 2900 1450 2800
Wire Wire Line
	1450 2800 1550 2800
Wire Wire Line
	1550 2800 1550 2750
Wire Wire Line
	2900 1300 3050 1300
Wire Wire Line
	2900 800  3050 800 
Wire Wire Line
	2900 800  2900 1150
Wire Wire Line
	3050 1100 3050 1300
Connection ~ 3050 1300
Wire Wire Line
	3050 1300 3250 1300
$Comp
L Device:C C11
U 1 1 5D6D1B10
P 2950 7250
F 0 "C11" H 3065 7296 50  0000 L CNN
F 1 "100n" H 3065 7205 50  0000 L CNN
F 2 "Capacitor_SMD:C_0603_1608Metric_Pad1.05x0.95mm_HandSolder" H 2988 7100 50  0001 C CNN
F 3 "~" H 2950 7250 50  0001 C CNN
F 4 "1276-CL10B104KB8NNNLCT-ND" H 2950 7250 50  0001 C CNN "Digikey PN"
	1    2950 7250
	1    0    0    -1  
$EndComp
Wire Wire Line
	2550 7100 2950 7100
Connection ~ 2550 7100
Connection ~ 2950 7100
Wire Wire Line
	2550 7400 2950 7400
Connection ~ 2550 7400
Connection ~ 2950 7400
$Comp
L Device:C C20
U 1 1 5D739374
P 5250 1600
F 0 "C20" H 5365 1646 50  0000 L CNN
F 1 "1u" H 5365 1555 50  0000 L CNN
F 2 "Capacitor_SMD:C_0603_1608Metric_Pad1.05x0.95mm_HandSolder" H 5288 1450 50  0001 C CNN
F 3 "~" H 5250 1600 50  0001 C CNN
F 4 "1276-1182-1-ND" H 5250 1600 50  0001 C CNN "Digikey PN"
	1    5250 1600
	1    0    0    -1  
$EndComp
Wire Wire Line
	5250 1450 5250 1300
Connection ~ 5250 1300
Wire Wire Line
	5250 1300 5150 1300
Wire Wire Line
	5250 1750 5900 1750
Connection ~ 5900 1750
Wire Wire Line
	5900 1750 5900 1850
$Comp
L Device:C C21
U 1 1 5D73DCE6
P 6400 1600
F 0 "C21" H 6285 1554 50  0000 R CNN
F 1 "1u" H 6285 1645 50  0000 R CNN
F 2 "Capacitor_SMD:C_0603_1608Metric_Pad1.05x0.95mm_HandSolder" H 6438 1450 50  0001 C CNN
F 3 "~" H 6400 1600 50  0001 C CNN
F 4 "1276-1182-1-ND" H 6400 1600 50  0001 C CNN "Digikey PN"
	1    6400 1600
	-1   0    0    1   
$EndComp
Wire Wire Line
	6400 1450 6400 1300
Connection ~ 6400 1300
Wire Wire Line
	6400 1300 6500 1300
Wire Wire Line
	6400 1750 5900 1750
$EndSCHEMATC
