EESchema Schematic File Version 4
LIBS:horse_feeder-cache
EELAYER 30 0
EELAYER END
$Descr A4 11693 8268
encoding utf-8
Sheet 4 6
Title ""
Date ""
Rev ""
Comp ""
Comment1 ""
Comment2 ""
Comment3 ""
Comment4 ""
$EndDescr
$Comp
L Device:Crystal Y?
U 1 1 5DA1CBD7
P 7000 3350
AR Path="/5DA1CBD7" Ref="Y?"  Part="1" 
AR Path="/5DA03C15/5DA1CBD7" Ref="Y2"  Part="1" 
F 0 "Y2" H 7000 3618 50  0000 C CNN
F 1 "32.768 kHz" H 7000 3527 50  0000 C CNN
F 2 "Crystal:Crystal_DS26_D2.0mm_L6.0mm_Horizontal" H 7000 3350 50  0001 C CNN
F 3 "~" H 7000 3350 50  0001 C CNN
F 4 "300-8301-ND" H 7000 3350 50  0001 C CNN "Digikey PN"
	1    7000 3350
	1    0    0    -1  
$EndComp
Wire Wire Line
	6800 3350 6850 3350
Wire Wire Line
	7150 3350 7150 3500
Wire Wire Line
	6800 3350 6800 3500
$Comp
L Device:C C?
U 1 1 5DA1CBE0
P 6800 3650
AR Path="/5DA1CBE0" Ref="C?"  Part="1" 
AR Path="/5DA03C15/5DA1CBE0" Ref="C18"  Part="1" 
F 0 "C18" H 6915 3696 50  0000 L CNN
F 1 "2p" H 6915 3605 50  0000 L CNN
F 2 "Capacitor_SMD:C_0603_1608Metric_Pad1.05x0.95mm_HandSolder" H 6838 3500 50  0001 C CNN
F 3 "~" H 6800 3650 50  0001 C CNN
F 4 "1276-2124-1-ND" H 6800 3650 50  0001 C CNN "Digikey PN"
	1    6800 3650
	1    0    0    -1  
$EndComp
$Comp
L Device:C C?
U 1 1 5DA1CBE6
P 7150 3650
AR Path="/5DA1CBE6" Ref="C?"  Part="1" 
AR Path="/5DA03C15/5DA1CBE6" Ref="C19"  Part="1" 
F 0 "C19" H 7265 3696 50  0000 L CNN
F 1 "2p" H 7265 3605 50  0000 L CNN
F 2 "Capacitor_SMD:C_0603_1608Metric_Pad1.05x0.95mm_HandSolder" H 7188 3500 50  0001 C CNN
F 3 "~" H 7150 3650 50  0001 C CNN
F 4 "1276-2124-1-ND" H 7150 3650 50  0001 C CNN "Digikey PN"
	1    7150 3650
	1    0    0    -1  
$EndComp
Wire Wire Line
	6800 3800 6800 4050
Wire Wire Line
	6800 4050 7000 4050
Wire Wire Line
	7150 4050 7150 3800
Wire Wire Line
	7000 4200 7000 4050
Connection ~ 7000 4050
Wire Wire Line
	7000 4050 7150 4050
$Comp
L power:GND #PWR?
U 1 1 5DA1CBF2
P 7000 4200
AR Path="/5DA1CBF2" Ref="#PWR?"  Part="1" 
AR Path="/5DA03C15/5DA1CBF2" Ref="#PWR057"  Part="1" 
F 0 "#PWR057" H 7000 3950 50  0001 C CNN
F 1 "GND" H 7005 4027 50  0000 C CNN
F 2 "" H 7000 4200 50  0001 C CNN
F 3 "" H 7000 4200 50  0001 C CNN
	1    7000 4200
	1    0    0    -1  
$EndComp
Wire Wire Line
	7150 3350 7400 3350
Connection ~ 7150 3350
Wire Wire Line
	6800 3350 6600 3350
Connection ~ 6800 3350
Text Label 6600 3350 2    50   ~ 0
OSC_RTC_IN
Text Label 7400 3350 0    50   ~ 0
OSC_RTC_OUT
Wire Wire Line
	4200 3600 4050 3600
Wire Wire Line
	4200 3700 4050 3700
Wire Wire Line
	4200 4000 4050 4000
Wire Wire Line
	5600 3600 5450 3600
Wire Wire Line
	5600 3800 5450 3800
Wire Wire Line
	5600 3900 5450 3900
Wire Wire Line
	5600 4000 5450 4000
Wire Wire Line
	3400 3800 3400 3500
$Comp
L power:+BATT #PWR?
U 1 1 5DA1CC10
P 3400 3500
AR Path="/5DA1CC10" Ref="#PWR?"  Part="1" 
AR Path="/5DA03C15/5DA1CC10" Ref="#PWR053"  Part="1" 
F 0 "#PWR053" H 3400 3350 50  0001 C CNN
F 1 "+BATT" H 3415 3673 50  0000 C CNN
F 2 "" H 3400 3500 50  0001 C CNN
F 3 "" H 3400 3500 50  0001 C CNN
	1    3400 3500
	1    0    0    -1  
$EndComp
Wire Wire Line
	4050 4000 4050 4100
$Comp
L power:GND #PWR?
U 1 1 5DA1CC18
P 4050 4100
AR Path="/5DA1CC18" Ref="#PWR?"  Part="1" 
AR Path="/5DA03C15/5DA1CC18" Ref="#PWR054"  Part="1" 
F 0 "#PWR054" H 4050 3850 50  0001 C CNN
F 1 "GND" H 4055 3927 50  0000 C CNN
F 2 "" H 4050 4100 50  0001 C CNN
F 3 "" H 4050 4100 50  0001 C CNN
	1    4050 4100
	1    0    0    -1  
$EndComp
Wire Wire Line
	5600 3600 5600 3500
$Comp
L power:+3.3V #PWR?
U 1 1 5DA1CC1F
P 5600 3500
AR Path="/5DA1CC1F" Ref="#PWR?"  Part="1" 
AR Path="/5DA03C15/5DA1CC1F" Ref="#PWR055"  Part="1" 
F 0 "#PWR055" H 5600 3350 50  0001 C CNN
F 1 "+3.3V" H 5615 3673 50  0000 C CNN
F 2 "" H 5600 3500 50  0001 C CNN
F 3 "" H 5600 3500 50  0001 C CNN
	1    5600 3500
	1    0    0    -1  
$EndComp
$Comp
L Device:R R?
U 1 1 5DA1CC29
P 5750 3550
AR Path="/5DA1CC29" Ref="R?"  Part="1" 
AR Path="/5DA03C15/5DA1CC29" Ref="R25"  Part="1" 
F 0 "R25" H 5820 3596 50  0000 L CNN
F 1 "10k" H 5820 3505 50  0000 L CNN
F 2 "Resistor_SMD:R_0603_1608Metric_Pad1.05x0.95mm_HandSolder" V 5680 3550 50  0001 C CNN
F 3 "~" H 5750 3550 50  0001 C CNN
F 4 "RNCP0603FTD10K0CT-ND" H 5750 3550 50  0001 C CNN "Digikey PN"
	1    5750 3550
	1    0    0    -1  
$EndComp
Wire Wire Line
	5750 3400 5750 3250
$Comp
L power:+3.3V #PWR?
U 1 1 5DA1CC32
P 5750 3250
AR Path="/5DA1CC32" Ref="#PWR?"  Part="1" 
AR Path="/5DA03C15/5DA1CC32" Ref="#PWR056"  Part="1" 
F 0 "#PWR056" H 5750 3100 50  0001 C CNN
F 1 "+3.3V" H 5765 3423 50  0000 C CNN
F 2 "" H 5750 3250 50  0001 C CNN
F 3 "" H 5750 3250 50  0001 C CNN
	1    5750 3250
	1    0    0    -1  
$EndComp
$Comp
L Device:R R?
U 1 1 5DA1CC38
P 3150 3750
AR Path="/5DA1CC38" Ref="R?"  Part="1" 
AR Path="/5DA03C15/5DA1CC38" Ref="R24"  Part="1" 
F 0 "R24" H 3080 3704 50  0000 R CNN
F 1 "10k" H 3080 3795 50  0000 R CNN
F 2 "Resistor_SMD:R_0603_1608Metric_Pad1.05x0.95mm_HandSolder" V 3080 3750 50  0001 C CNN
F 3 "~" H 3150 3750 50  0001 C CNN
F 4 "RNCP0603FTD10K0CT-ND" H 3150 3750 50  0001 C CNN "Digikey PN"
	1    3150 3750
	-1   0    0    1   
$EndComp
Connection ~ 3150 3900
Wire Wire Line
	3150 3900 3050 3900
Wire Wire Line
	3150 3600 3150 3500
$Comp
L power:+3.3V #PWR?
U 1 1 5DA1CC41
P 3150 3500
AR Path="/5DA1CC41" Ref="#PWR?"  Part="1" 
AR Path="/5DA03C15/5DA1CC41" Ref="#PWR052"  Part="1" 
F 0 "#PWR052" H 3150 3350 50  0001 C CNN
F 1 "+3.3V" H 3165 3673 50  0000 C CNN
F 2 "" H 3150 3500 50  0001 C CNN
F 3 "" H 3150 3500 50  0001 C CNN
	1    3150 3500
	1    0    0    -1  
$EndComp
Wire Wire Line
	4200 3900 3150 3900
$Comp
L horse_feeder:MCP79510-I_MS U?
U 1 1 5DA1CBFE
P 4850 3800
AR Path="/5DA1CBFE" Ref="U?"  Part="1" 
AR Path="/5DA03C15/5DA1CBFE" Ref="U4"  Part="1" 
F 0 "U4" H 4825 4387 60  0000 C CNN
F 1 "MCP79510-I_MS" H 4825 4281 60  0000 C CNN
F 2 "Package_SO:MSOP-10_3x3mm_P0.5mm" H 4850 4250 60  0001 C CNN
F 3 "http://ww1.microchip.com/downloads/en/DeviceDoc/MCP7951X-MCP7952X-Battery-Backed-SPI-RTCC-20002300C.pdf" H 4200 4000 60  0001 C CNN
F 4 "MCP79510-I/MS-ND" H 4850 3800 50  0001 C CNN "Digikey PN"
	1    4850 3800
	1    0    0    -1  
$EndComp
Wire Wire Line
	3400 3800 4200 3800
Text HLabel 5600 3800 2    50   Input ~ 0
SCK
Text HLabel 5600 3900 2    50   Output ~ 0
MISO
Text HLabel 5600 4000 2    50   Input ~ 0
MOSI
Text HLabel 6050 3700 2    50   Output ~ 0
RTC_INT
Text Label 4050 3600 2    50   ~ 0
OSC_RTC_IN
Text Label 4050 3700 2    50   ~ 0
OSC_RTC_OUT
Text HLabel 3050 3900 0    50   Input ~ 0
RTC_CS
$Comp
L Connector:TestPoint TP1
U 1 1 5DC3B60A
P 6000 3150
F 0 "TP1" H 6058 3268 50  0000 L CNN
F 1 "TestPoint" H 6058 3177 50  0000 L CNN
F 2 "Connector_PinHeader_2.54mm:PinHeader_1x01_P2.54mm_Vertical" H 6200 3150 50  0001 C CNN
F 3 "~" H 6200 3150 50  0001 C CNN
F 4 "~" H 6000 3150 50  0001 C CNN "Digikey PN"
	1    6000 3150
	1    0    0    -1  
$EndComp
Connection ~ 5750 3700
Wire Wire Line
	5750 3700 5450 3700
Wire Wire Line
	5750 3700 6000 3700
Wire Wire Line
	6000 3150 6000 3700
Connection ~ 6000 3700
Wire Wire Line
	6000 3700 6050 3700
$EndSCHEMATC
